<?xml version='1.0'?>
<ns2:test-suite xmlns:ns2='urn:model.allure.qatools.yandex.ru' start='1612968501528' stop='1612968563425'>
    <name>Покупка билета картой:</name>
    <title>Покупка билета картой:</title>
    <test-cases>
        <test-case start='1612968504427' status='failed' stop='1612968563417'>
            <name>test Покупка билета картой</name>
            <title>test Покупка билета картой</title>
            <labels/>
            <parameters/>
            <steps>
                <step start='1612968504462' status='passed' stop='1612968509484'>
                    <name>I am on page "https://matreshka.technaxis.com/auth/login"</name>
                    <title>I am on page "https://matreshka.technaxis.com/auth/login"</title>
                    <attachments/>
                    <steps/>
                </step>
                <step start='1612968509487' status='passed' stop='1612968510535'>
                    <name>mainPage: login "gfaaf@mail.ru", "Password56"</name>
                    <title>mainPage: login "gfaaf@mail.ru", "Password56"</title>
                    <attachments/>
                    <steps>
                        <step start='1612968509487' status='passed' stop='1612968509950'>
                            <name>I fill field "#login-input", "gfaaf@mail.ru"</name>
                            <title>I fill field "#login-input", "gfaaf@mail.ru"</title>
                            <attachments/>
                            <steps/>
                        </step>
                        <step start='1612968509950' status='passed' stop='1612968510287'>
                            <name>I fill field "[formcontrolname="password"]", "Password56"</name>
                            <title>I fill field "[formcontrolname="password"]", "Password56"</title>
                            <attachments/>
                            <steps/>
                        </step>
                        <step start='1612968510287' status='passed' stop='1612968510535'>
                            <name>I click {xpath: .//button[contains(., ' Войти ')]}</name>
                            <title>I click {xpath: .//button[contains(., ' Войти ')]}</title>
                            <attachments/>
                            <steps/>
                        </step>
                    </steps>
                </step>
                <step start='1612968510535' status='failed' stop='1612968563417'>
                    <name>myTicketsPage: buyTicketWithCard 4</name>
                    <title>myTicketsPage: buyTicketWithCard 4</title>
                    <attachments/>
                    <steps>
                        <step start='1612968510535' status='passed' stop='1612968516166'>
                            <name>I click "a[href="/cabinet/purchase"]"</name>
                            <title>I click "a[href="/cabinet/purchase"]"</title>
                            <attachments/>
                            <steps/>
                        </step>
                        <step start='1612968516166' status='passed' stop='1612968517617'>
                            <name>I fill field "input[inputmode="numeric"]", 4</name>
                            <title>I fill field "input[inputmode="numeric"]", 4</title>
                            <attachments/>
                            <steps/>
                        </step>
                        <step start='1612968517617' status='failed' stop='1612968563416'>
                            <name>I click {"css":"#radio-payment-type-ONLINE"}</name>
                            <title>I click {"css":"#radio-payment-type-ONLINE"}</title>
                            <attachments/>
                            <steps/>
                        </step>
                    </steps>
                </step>
            </steps>
            <attachments/>
            <failure>
                <message>page.$$: Protocol error (Runtime.callFunctionOn): Session closed. Most likely the page has been closed.</message>
                <stack-trace>page.$$: Protocol error (Runtime.callFunctionOn): Session closed. Most likely the page has been closed.
                    at Connection.sendMessageToServer (/Users/rufina/Desktop/codecept/node_modules/playwright/lib/client/connection.js:69:15)
                    at Proxy.&lt;anonymous> (/Users/rufina/Desktop/codecept/node_modules/playwright/lib/client/channelOwner.js:44:61)
                    at /Users/rufina/Desktop/codecept/node_modules/playwright/lib/client/frame.js:205:48
                    at Frame._wrapApiCall (/Users/rufina/Desktop/codecept/node_modules/playwright/lib/client/channelOwner.js:72:34)
                    at Frame.$$ (/Users/rufina/Desktop/codecept/node_modules/playwright/lib/client/frame.js:204:21)
                    at /Users/rufina/Desktop/codecept/node_modules/playwright/lib/client/page.js:233:60
                    at Page._attributeToPage (/Users/rufina/Desktop/codecept/node_modules/playwright/lib/client/page.js:205:20)
                    at Page.$$ (/Users/rufina/Desktop/codecept/node_modules/playwright/lib/client/page.js:233:21)
                    at Playwright.findElements (/Users/rufina/Desktop/codecept/node_modules/codeceptjs/lib/helper/Playwright.js:2176:18)
                    at Playwright.findClickable (/Users/rufina/Desktop/codecept/node_modules/codeceptjs/lib/helper/Playwright.js:2210:47)</stack-trace>
            </failure>
        </test-case>
    </test-cases>
</ns2:test-suite>