<?xml version='1.0'?>
<ns2:test-suite xmlns:ns2='urn:model.allure.qatools.yandex.ru' start='1612812733385' stop='1612812739278'>
    <name>login:</name>
    <title>login:</title>
    <test-cases>
        <test-case start='1612812734887' status='passed' stop='1612812739246'>
            <name>test something</name>
            <title>test something</title>
            <labels/>
            <parameters/>
            <steps>
                <step start='1612812734912' status='passed' stop='1612812737644'>
                    <name>I am on page "https://try.vikunja.io/login"</name>
                    <title>I am on page "https://try.vikunja.io/login"</title>
                    <attachments/>
                    <steps/>
                </step>
                <step start='1612812737645' status='passed' stop='1612812738206'>
                    <name>mainPage: login "demo", "demo"</name>
                    <title>mainPage: login "demo", "demo"</title>
                    <attachments/>
                    <steps>
                        <step start='1612812737645' status='passed' stop='1612812737843'>
                            <name>I fill field "#username", "demo"</name>
                            <title>I fill field "#username", "demo"</title>
                            <attachments/>
                            <steps/>
                        </step>
                        <step start='1612812737844' status='passed' stop='1612812738044'>
                            <name>I fill field "#password", "demo"</name>
                            <title>I fill field "#password", "demo"</title>
                            <attachments/>
                            <steps/>
                        </step>
                        <step start='1612812738044' status='passed' stop='1612812738206'>
                            <name>I click {"css":".is-primary"}</name>
                            <title>I click {"css":".is-primary"}</title>
                            <attachments/>
                            <steps/>
                        </step>
                    </steps>
                </step>
                <step start='1612812738206' status='passed' stop='1612812739132'>
                    <name>currentTasksPage: gotoUpcoming </name>
                    <title>currentTasksPage: gotoUpcoming </title>
                    <attachments/>
                    <steps>
                        <step start='1612812738206' status='passed' stop='1612812739131'>
                            <name>I click "Upcoming"</name>
                            <title>I click "Upcoming"</title>
                            <attachments/>
                            <steps/>
                        </step>
                    </steps>
                </step>
                <step start='1612812739132' status='passed' stop='1612812739245'>
                    <name>I see "Tasks from"</name>
                    <title>I see "Tasks from"</title>
                    <attachments/>
                    <steps/>
                </step>
            </steps>
            <attachments/>
        </test-case>
    </test-cases>
</ns2:test-suite>