<?xml version='1.0'?>
<ns2:test-suite xmlns:ns2='urn:model.allure.qatools.yandex.ru' start='1612960799885' stop='1612960821104'>
    <name>Покупка билета кошельком:</name>
    <title>Покупка билета кошельком:</title>
    <test-cases>
        <test-case start='1612960801974' status='failed' stop='1612960820696'>
            <name>test Покупка билета кошельком</name>
            <title>test Покупка билета кошельком</title>
            <labels/>
            <parameters/>
            <steps>
                <step start='1612960802014' status='passed' stop='1612960809289'>
                    <name>I am on page "https://matreshka.technaxis.com/auth/login"</name>
                    <title>I am on page "https://matreshka.technaxis.com/auth/login"</title>
                    <attachments/>
                    <steps/>
                </step>
                <step start='1612960809290' status='passed' stop='1612960810554'>
                    <name>mainPage: login "gfaaf@mail.ru", "Password56"</name>
                    <title>mainPage: login "gfaaf@mail.ru", "Password56"</title>
                    <attachments/>
                    <steps>
                        <step start='1612960809290' status='passed' stop='1612960809977'>
                            <name>I fill field "#login-input", "gfaaf@mail.ru"</name>
                            <title>I fill field "#login-input", "gfaaf@mail.ru"</title>
                            <attachments/>
                            <steps/>
                        </step>
                        <step start='1612960809977' status='passed' stop='1612960810338'>
                            <name>I fill field "[formcontrolname="password"]", "Password56"</name>
                            <title>I fill field "[formcontrolname="password"]", "Password56"</title>
                            <attachments/>
                            <steps/>
                        </step>
                        <step start='1612960810338' status='passed' stop='1612960810553'>
                            <name>I click {xpath: .//button[contains(., ' Войти ')]}</name>
                            <title>I click {xpath: .//button[contains(., ' Войти ')]}</title>
                            <attachments/>
                            <steps/>
                        </step>
                    </steps>
                </step>
                <step start='1612960810554' status='passed' stop='1612960815871'>
                    <name>myTicketsPage: buyTicketWithWallet 1</name>
                    <title>myTicketsPage: buyTicketWithWallet 1</title>
                    <attachments/>
                    <steps>
                        <step start='1612960810554' status='passed' stop='1612960814456'>
                            <name>I click "a[href="/cabinet/purchase"]"</name>
                            <title>I click "a[href="/cabinet/purchase"]"</title>
                            <attachments/>
                            <steps/>
                        </step>
                        <step start='1612960814456' status='passed' stop='1612960815871'>
                            <name>I fill field "input[inputmode="numeric"]", 1</name>
                            <title>I fill field "input[inputmode="numeric"]", 1</title>
                            <attachments/>
                            <steps/>
                        </step>
                    </steps>
                </step>
                <step start='1612960815871' status='failed' stop='1612960820695'>
                    <name>I see "Успешно"</name>
                    <title>I see "Успешно"</title>
                    <attachments/>
                    <steps/>
                </step>
            </steps>
            <attachments>
                <attachment title='Last Seen Screenshot' source='35903cfb-9e68-4d68-aeb7-4a2e2e145e65-attachment.png' type='image/png' size='159084'/>
            </attachments>
            <failure>
                <message></message>
                <stack-trace>undefined</stack-trace>
            </failure>
        </test-case>
    </test-cases>
</ns2:test-suite>