<?xml version='1.0'?>
<ns2:test-suite xmlns:ns2='urn:model.allure.qatools.yandex.ru' start='1612968668400' stop='1612968685742'>
    <name>Покупка билета картой:</name>
    <title>Покупка билета картой:</title>
    <test-cases>
        <test-case start='1612968670423' status='passed' stop='1612968685702'>
            <name>test Покупка билета картой</name>
            <title>test Покупка билета картой</title>
            <labels/>
            <parameters/>
            <steps>
                <step start='1612968670449' status='passed' stop='1612968675166'>
                    <name>I am on page "https://matreshka.technaxis.com/auth/login"</name>
                    <title>I am on page "https://matreshka.technaxis.com/auth/login"</title>
                    <attachments/>
                    <steps/>
                </step>
                <step start='1612968675168' status='passed' stop='1612968676522'>
                    <name>mainPage: login "gfaaf@mail.ru", "Password56"</name>
                    <title>mainPage: login "gfaaf@mail.ru", "Password56"</title>
                    <attachments/>
                    <steps>
                        <step start='1612968675168' status='passed' stop='1612968675723'>
                            <name>I fill field "#login-input", "gfaaf@mail.ru"</name>
                            <title>I fill field "#login-input", "gfaaf@mail.ru"</title>
                            <attachments/>
                            <steps/>
                        </step>
                        <step start='1612968675723' status='passed' stop='1612968676092'>
                            <name>I fill field "[formcontrolname="password"]", "Password56"</name>
                            <title>I fill field "[formcontrolname="password"]", "Password56"</title>
                            <attachments/>
                            <steps/>
                        </step>
                        <step start='1612968676092' status='passed' stop='1612968676522'>
                            <name>I click {xpath: .//button[contains(., ' Войти ')]}</name>
                            <title>I click {xpath: .//button[contains(., ' Войти ')]}</title>
                            <attachments/>
                            <steps/>
                        </step>
                    </steps>
                </step>
                <step start='1612968676523' status='passed' stop='1612968685702'>
                    <name>myTicketsPage: buyTicketWithCard 4</name>
                    <title>myTicketsPage: buyTicketWithCard 4</title>
                    <attachments/>
                    <steps>
                        <step start='1612968676523' status='passed' stop='1612968683172'>
                            <name>I click "a[href="/cabinet/purchase"]"</name>
                            <title>I click "a[href="/cabinet/purchase"]"</title>
                            <attachments/>
                            <steps/>
                        </step>
                        <step start='1612968683172' status='passed' stop='1612968684852'>
                            <name>I fill field "input[inputmode="numeric"]", 4</name>
                            <title>I fill field "input[inputmode="numeric"]", 4</title>
                            <attachments/>
                            <steps/>
                        </step>
                        <step start='1612968684852' status='passed' stop='1612968685161'>
                            <name>I click {xpath: (.//*[contains(concat(' ', normalize-space(./@class), ' '), ' radio-card ')])[position()=3]}</name>
                            <title>I click {xpath: (.//*[contains(concat(' ', normalize-space(./@class), ' '), ' radio-card ')])[position()=3]}</title>
                            <attachments/>
                            <steps/>
                        </step>
                        <step start='1612968685161' status='passed' stop='1612968685381'>
                            <name>I fill field {xpath: (.//input)[position()=last()-0]}, 300</name>
                            <title>I fill field {xpath: (.//input)[position()=last()-0]}, 300</title>
                            <attachments/>
                            <steps/>
                        </step>
                        <step start='1612968685382' status='passed' stop='1612968685701'>
                            <name>I click {xpath: .//button[contains(., 'Купить')]}</name>
                            <title>I click {xpath: .//button[contains(., 'Купить')]}</title>
                            <attachments/>
                            <steps/>
                        </step>
                    </steps>
                </step>
            </steps>
            <attachments/>
        </test-case>
    </test-cases>
</ns2:test-suite>