<?xml version='1.0'?>
<ns2:test-suite xmlns:ns2='urn:model.allure.qatools.yandex.ru' start='1612897550644' stop='1612897551616'>
    <name>Get profile summary:</name>
    <title>Get profile summary:</title>
    <test-cases>
        <test-case start='1612897550645' status='failed' stop='1612897551612'>
            <name>Get profile summary</name>
            <title>Get profile summary</title>
            <labels/>
            <parameters/>
            <steps>
                <step start='1612897550659' status='passed' stop='1612897551611'>
                    <name>I send post request "/v1/client/login", {"login":"sdgsdg@jlrt.rte","password":"Password56"}</name>
                    <title>I send post request "/v1/client/login", {"login":"sdgsdg@jlrt.rte","password":"Password56"}</title>
                    <attachments/>
                    <steps/>
                </step>
                <step start='1612897551611' status='failed' stop='1612897551612'>
                    <name>I send get request "/v1/client/profile/summary", "Bearer eyJhbGciOiJIUzUxMiJ9.eyJjbGllbnRUeXBlIjoidXNlciIsInVzZXJfaWQiOjk5LCJ0b2tlbl9leHBpcmF0aW9uX2RhdGUiOjE2MTUzMTY3NTE1MTEsInRva2VuX2NyZWF0ZV9kYXRlIjoxNjEyODk3NTUxNTExfQ.i35wD-rHzGVkMaSbyTIOBIIO-d5iMjseuDphNtKGsoKkvpVqHKJXA2vwkYkwedFFF4OtlFH8knWv1UJvjJRmnA"</name>
                    <title>I send get request "/v1/client/profile/summary", "Bearer eyJhbGciOiJIUzUxMiJ9.eyJjbGllbnRUeXBlIjoidXNlciIsInVzZXJfaWQiOjk5LCJ0b2tlbl9leHBpcmF0aW9uX2RhdGUiOjE2MTUzMTY3NTE1MTEsInRva2VuX2NyZWF0ZV9kYXRlIjoxNjEyODk3NTUxNTExfQ.i35wD-rHzGVkMaSbyTIOBIIO-d5iMjseuDphNtKGsoKkvpVqHKJXA2vwkYkwedFFF4OtlFH8knWv1UJvjJRmnA"</title>
                    <attachments/>
                    <steps/>
                </step>
            </steps>
            <attachments/>
            <failure>
                <message>name.toUpperCase is not a function</message>
                <stack-trace>TypeError: name.toUpperCase is not a function
                    at processHeader (/Users/rufina/Desktop/codecept/node_modules/axios/lib/helpers/normalizeHeaderName.js:7:41)
                    at Object.forEach (/Users/rufina/Desktop/codecept/node_modules/axios/lib/utils.js:232:10)
                    at normalizeHeaderName (/Users/rufina/Desktop/codecept/node_modules/axios/lib/helpers/normalizeHeaderName.js:6:9)
                    at transformRequest (/Users/rufina/Desktop/codecept/node_modules/axios/lib/defaults.js:32:5)
                    at transform (/Users/rufina/Desktop/codecept/node_modules/axios/lib/core/transformData.js:16:12)
                    at Object.forEach (/Users/rufina/Desktop/codecept/node_modules/axios/lib/utils.js:232:10)
                    at transformData (/Users/rufina/Desktop/codecept/node_modules/axios/lib/core/transformData.js:15:9)
                    at dispatchRequest (/Users/rufina/Desktop/codecept/node_modules/axios/lib/core/dispatchRequest.js:30:17)
                    at processTicksAndRejections (internal/process/task_queues.js:93:5)
                    at async REST._executeRequest (/Users/rufina/Desktop/codecept/node_modules/codeceptjs/lib/helper/REST.js:98:18)</stack-trace>
            </failure>
        </test-case>
    </test-cases>
</ns2:test-suite>