<?xml version='1.0'?>
<ns2:test-suite xmlns:ns2='urn:model.allure.qatools.yandex.ru' start='1612895754460' stop='1612895755492'>
    <name>Authorization:</name>
    <title>Authorization:</title>
    <test-cases>
        <test-case start='1612895754462' status='failed' stop='1612895755485'>
            <name>User can register with correct password and login</name>
            <title>User can register with correct password and login</title>
            <labels/>
            <parameters/>
            <steps>
                <step start='1612895754484' status='passed' stop='1612895755450'>
                    <name>I send post request "/v1/client/login", {"login":"gfaaf@mail.ru","password":"Password56"}</name>
                    <title>I send post request "/v1/client/login", {"login":"gfaaf@mail.ru","password":"Password56"}</title>
                    <attachments/>
                    <steps/>
                </step>
            </steps>
            <attachments/>
            <failure>
                <message>Cannot read property 'result' of undefined</message>
                <stack-trace>TypeError: Cannot read property 'result' of undefined
                    at Test.&lt;anonymous> (/Users/rufina/Desktop/codecept/specs/auth.spec.js:20:22)
                    at processTicksAndRejections (internal/process/task_queues.js:93:5)</stack-trace>
            </failure>
        </test-case>
    </test-cases>
</ns2:test-suite>