<?xml version='1.0'?>
<ns2:test-suite xmlns:ns2='urn:model.allure.qatools.yandex.ru' start='1612932158503' stop='1612932180237'>
    <name>login:</name>
    <title>login:</title>
    <test-cases>
        <test-case start='1612932160739' status='failed' stop='1612932179839'>
            <name>test login</name>
            <title>test login</title>
            <labels/>
            <parameters/>
            <steps>
                <step start='1612932160773' status='passed' stop='1612932171532'>
                    <name>I am on page "https://matreshka.technaxis.com"</name>
                    <title>I am on page "https://matreshka.technaxis.com"</title>
                    <attachments/>
                    <steps/>
                </step>
                <step start='1612932171534' status='passed' stop='1612932174288'>
                    <name>mainPage: login "gfaaf@mail.ru", "Password56"</name>
                    <title>mainPage: login "gfaaf@mail.ru", "Password56"</title>
                    <attachments/>
                    <steps>
                        <step start='1612932171534' status='passed' stop='1612932172383'>
                            <name>I click {xpath: .//a[@href = '/auth/login']}</name>
                            <title>I click {xpath: .//a[@href = '/auth/login']}</title>
                            <attachments/>
                            <steps/>
                        </step>
                        <step start='1612932172383' status='passed' stop='1612932173404'>
                            <name>I fill field "#login-input", "gfaaf@mail.ru"</name>
                            <title>I fill field "#login-input", "gfaaf@mail.ru"</title>
                            <attachments/>
                            <steps/>
                        </step>
                        <step start='1612932173404' status='passed' stop='1612932173717'>
                            <name>I fill field "[formcontrolname="password"]", "Password56"</name>
                            <title>I fill field "[formcontrolname="password"]", "Password56"</title>
                            <attachments/>
                            <steps/>
                        </step>
                        <step start='1612932173717' status='passed' stop='1612932174287'>
                            <name>I click {"css":".gl-btn"}</name>
                            <title>I click {"css":".gl-btn"}</title>
                            <attachments/>
                            <steps/>
                        </step>
                    </steps>
                </step>
                <step start='1612932174288' status='failed' stop='1612932179838'>
                    <name>I see "Мой профиль"</name>
                    <title>I see "Мой профиль"</title>
                    <attachments/>
                    <steps/>
                </step>
            </steps>
            <attachments>
                <attachment title='Last Seen Screenshot' source='d649dfa8-46c1-4add-ba42-686bfa197aaf-attachment.png' type='image/png' size='39213'/>
            </attachments>
            <failure>
                <message></message>
                <stack-trace>undefined</stack-trace>
            </failure>
        </test-case>
    </test-cases>
</ns2:test-suite>