<?xml version='1.0'?>
<ns2:test-suite xmlns:ns2='urn:model.allure.qatools.yandex.ru' start='1612961042543' stop='1612961065116'>
    <name>Покупка билета кошельком:</name>
    <title>Покупка билета кошельком:</title>
    <test-cases>
        <test-case start='1612961044588' status='failed' stop='1612961064679'>
            <name>test Покупка билета кошельком</name>
            <title>test Покупка билета кошельком</title>
            <labels/>
            <parameters/>
            <steps>
                <step start='1612961044619' status='passed' stop='1612961051277'>
                    <name>I am on page "https://matreshka.technaxis.com/auth/login"</name>
                    <title>I am on page "https://matreshka.technaxis.com/auth/login"</title>
                    <attachments/>
                    <steps/>
                </step>
                <step start='1612961051280' status='passed' stop='1612961052480'>
                    <name>mainPage: login "gfaaf@mail.ru", "Password56"</name>
                    <title>mainPage: login "gfaaf@mail.ru", "Password56"</title>
                    <attachments/>
                    <steps>
                        <step start='1612961051280' status='passed' stop='1612961051868'>
                            <name>I fill field "#login-input", "gfaaf@mail.ru"</name>
                            <title>I fill field "#login-input", "gfaaf@mail.ru"</title>
                            <attachments/>
                            <steps/>
                        </step>
                        <step start='1612961051868' status='passed' stop='1612961052277'>
                            <name>I fill field "[formcontrolname="password"]", "Password56"</name>
                            <title>I fill field "[formcontrolname="password"]", "Password56"</title>
                            <attachments/>
                            <steps/>
                        </step>
                        <step start='1612961052277' status='passed' stop='1612961052480'>
                            <name>I click {xpath: .//button[contains(., ' Войти ')]}</name>
                            <title>I click {xpath: .//button[contains(., ' Войти ')]}</title>
                            <attachments/>
                            <steps/>
                        </step>
                    </steps>
                </step>
                <step start='1612961052480' status='failed' stop='1612961064679'>
                    <name>myTicketsPage: buyTicketWithWallet 1</name>
                    <title>myTicketsPage: buyTicketWithWallet 1</title>
                    <attachments/>
                    <steps>
                        <step start='1612961052480' status='passed' stop='1612961058279'>
                            <name>I click "a[href="/cabinet/purchase"]"</name>
                            <title>I click "a[href="/cabinet/purchase"]"</title>
                            <attachments/>
                            <steps/>
                        </step>
                        <step start='1612961058279' status='passed' stop='1612961059324'>
                            <name>I fill field "input[inputmode="numeric"]", 1</name>
                            <title>I fill field "input[inputmode="numeric"]", 1</title>
                            <attachments/>
                            <steps/>
                        </step>
                        <step start='1612961059324' status='failed' stop='1612961064679'>
                            <name>I click "buttun[class="gl-btn mod-lg mod-blue gl-full-width"]"</name>
                            <title>I click "buttun[class="gl-btn mod-lg mod-blue gl-full-width"]"</title>
                            <attachments/>
                            <steps/>
                        </step>
                    </steps>
                </step>
            </steps>
            <attachments>
                <attachment title='Last Seen Screenshot' source='6f21f005-391a-4574-8283-30a12d930d59-attachment.png' type='image/png' size='159074'/>
            </attachments>
            <failure>
                <message>Clickable element "buttun[class="gl-btn mod-lg mod-blue gl-full-width"]" was not found by text|CSS|XPath</message>
                <stack-trace>Error: Clickable element "buttun[class="gl-btn mod-lg mod-blue gl-full-width"]" was not found by text|CSS|XPath
                    at new ElementNotFound (/Users/rufina/Desktop/codecept/node_modules/codeceptjs/lib/helper/errors/ElementNotFound.js:14:11)
                    at assertElementExists (/Users/rufina/Desktop/codecept/node_modules/codeceptjs/lib/helper/Playwright.js:2431:11)
                    at Playwright.proceedClick (/Users/rufina/Desktop/codecept/node_modules/codeceptjs/lib/helper/Playwright.js:2190:5)</stack-trace>
            </failure>
        </test-case>
    </test-cases>
</ns2:test-suite>