<?xml version='1.0'?>
<ns2:test-suite xmlns:ns2='urn:model.allure.qatools.yandex.ru' start='1612893966249' stop='1612893967173'>
    <name>Registration:</name>
    <title>Registration:</title>
    <test-cases>
        <test-case start='1612893966251' status='failed' stop='1612893967168'>
            <name>User can register with correct password and login</name>
            <title>User can register with correct password and login</title>
            <labels/>
            <parameters/>
            <steps>
                <step start='1612893966265' status='passed' stop='1612893967165'>
                    <name>I send post request "/api/register", {"email":"janet.weav786er@reqres.in","password":"q12345"}</name>
                    <title>I send post request "/api/register", {"email":"janet.weav786er@reqres.in","password":"q12345"}</title>
                    <attachments/>
                    <steps/>
                </step>
            </steps>
            <attachments/>
            <failure>
                <message>404 == 200</message>
                <stack-trace>AssertionError [ERR_ASSERTION]: 404 == 200
                    at Test.&lt;anonymous> (/Users/rufina/Desktop/codecept/specs/auth.spec.js:18:9)
                    at processTicksAndRejections (internal/process/task_queues.js:93:5)</stack-trace>
            </failure>
        </test-case>
    </test-cases>
</ns2:test-suite>