<?xml version='1.0'?>
<ns2:test-suite xmlns:ns2='urn:model.allure.qatools.yandex.ru' start='1612931136164' stop='1612931154018'>
    <name>login:</name>
    <title>login:</title>
    <test-cases>
        <test-case start='1612931137553' status='failed' stop='1612931153261'>
            <name>test login</name>
            <title>test login</title>
            <labels/>
            <parameters/>
            <steps>
                <step start='1612931137570' status='passed' stop='1612931148418'>
                    <name>I am on page "https://matreshka.technaxis.com/"</name>
                    <title>I am on page "https://matreshka.technaxis.com/"</title>
                    <attachments/>
                    <steps/>
                </step>
                <step start='1612931148420' status='failed' stop='1612931153261'>
                    <name>mainPage: login "gfaaf@mail.ru", "Password56"</name>
                    <title>mainPage: login "gfaaf@mail.ru", "Password56"</title>
                    <attachments/>
                    <steps>
                        <step start='1612931148420' status='failed' stop='1612931153260'>
                            <name>I fill field "#login-input", "gfaaf@mail.ru"</name>
                            <title>I fill field "#login-input", "gfaaf@mail.ru"</title>
                            <attachments/>
                            <steps/>
                        </step>
                    </steps>
                </step>
            </steps>
            <attachments>
                <attachment title='Last Seen Screenshot' source='be1b9a84-2408-494a-a706-68845dbc7353-attachment.png' type='image/png' size='834891'/>
            </attachments>
            <failure>
                <message>Field "#login-input" was not found by text|CSS|XPath</message>
                <stack-trace>Error: Field "#login-input" was not found by text|CSS|XPath
                    at new ElementNotFound (/Users/rufina/Desktop/codecept/node_modules/codeceptjs/lib/helper/errors/ElementNotFound.js:14:11)
                    at assertElementExists (/Users/rufina/Desktop/codecept/node_modules/codeceptjs/lib/helper/Playwright.js:2431:11)
                    at Playwright.fillField (/Users/rufina/Desktop/codecept/node_modules/codeceptjs/lib/helper/Playwright.js:1213:5)</stack-trace>
            </failure>
        </test-case>
    </test-cases>
</ns2:test-suite>