<?xml version='1.0'?>
<ns2:test-suite xmlns:ns2='urn:model.allure.qatools.yandex.ru' start='1612932698836' stop='1612932719034'>
    <name>login:</name>
    <title>login:</title>
    <test-cases>
        <test-case start='1612932700612' status='failed' stop='1612932718718'>
            <name>test login</name>
            <title>test login</title>
            <labels/>
            <parameters/>
            <steps>
                <step start='1612932700637' status='passed' stop='1612932711390'>
                    <name>I am on page "https://matreshka.technaxis.com"</name>
                    <title>I am on page "https://matreshka.technaxis.com"</title>
                    <attachments/>
                    <steps/>
                </step>
                <step start='1612932711393' status='passed' stop='1612932713794'>
                    <name>mainPage: login "gfaaf@mail.ru", "Password56"</name>
                    <title>mainPage: login "gfaaf@mail.ru", "Password56"</title>
                    <attachments/>
                    <steps>
                        <step start='1612932711393' status='passed' stop='1612932712388'>
                            <name>I click {xpath: .//a[@href = '/auth/login']}</name>
                            <title>I click {xpath: .//a[@href = '/auth/login']}</title>
                            <attachments/>
                            <steps/>
                        </step>
                        <step start='1612932712388' status='passed' stop='1612932713161'>
                            <name>I fill field "#login-input", "gfaaf@mail.ru"</name>
                            <title>I fill field "#login-input", "gfaaf@mail.ru"</title>
                            <attachments/>
                            <steps/>
                        </step>
                        <step start='1612932713161' status='passed' stop='1612932713461'>
                            <name>I fill field "[formcontrolname="password"]", "Password56"</name>
                            <title>I fill field "[formcontrolname="password"]", "Password56"</title>
                            <attachments/>
                            <steps/>
                        </step>
                        <step start='1612932713462' status='passed' stop='1612932713794'>
                            <name>I click {xpath: .//button[contains(., ' Войти ')]}</name>
                            <title>I click {xpath: .//button[contains(., ' Войти ')]}</title>
                            <attachments/>
                            <steps/>
                        </step>
                    </steps>
                </step>
                <step start='1612932713794' status='failed' stop='1612932718717'>
                    <name>I see "Мой профиль"</name>
                    <title>I see "Мой профиль"</title>
                    <attachments/>
                    <steps/>
                </step>
            </steps>
            <attachments>
                <attachment title='Last Seen Screenshot' source='659afbb2-1117-43ca-aae4-33155b776aa6-attachment.png' type='image/png' size='59132'/>
            </attachments>
            <failure>
                <message></message>
                <stack-trace>undefined</stack-trace>
            </failure>
        </test-case>
    </test-cases>
</ns2:test-suite>